…
`group_by()`에 변수를 3개 입력하면 마지막 변수를 제외하고 두 번째
변수까지만 활용해 그룹을 유지합니다.

``` r
mpg %>%
  group_by(drv, class, cyl) %>%
  summarise(tot = sum(hwy), .groups = "drop_last")
```

    ## # A tibble: 26 x 4
    ## # Groups:   drv, class [12]
    ##    drv   class        cyl   tot
    ##    <chr> <chr>      <int> <int>
    ##  1 4     compact        4   210
    ##  2 4     compact        6   100
    ##  3 4     midsize        6    49
    ##  4 4     midsize        8    23
    ##  5 4     pickup         4    62
    ##  6 4     pickup         6   179
    ##  7 4     pickup         8   316
    ##  8 4     subcompact     4   104
    ##  9 4     suv            4   190
    ## 10 4     suv            6   296
    ## # ... with 16 more rows

`drv` 및 `class` 기준으로 그루핑되어 있으므로 함수를 추가하면 `drv` 및
`class`별로 연산합니다.

``` r
mpg %>%
  group_by(drv, class, cyl) %>%
  summarise(tot = sum(hwy), .groups = "drop_last") %>% 
  mutate(t_tot = sum(tot))
```

    ## # A tibble: 26 x 5
    ## # Groups:   drv, class [12]
    ##    drv   class        cyl   tot t_tot
    ##    <chr> <chr>      <int> <int> <int>
    ##  1 4     compact        4   210   310
    ##  2 4     compact        6   100   310
    ##  3 4     midsize        6    49    72
    ##  4 4     midsize        8    23    72
    ##  5 4     pickup         4    62   557
    ##  6 4     pickup         6   179   557
    ##  7 4     pickup         8   316   557
    ##  8 4     subcompact     4   104   104
    ##  9 4     suv            4   190   932
    ## 10 4     suv            6   296   932
    ## # ... with 16 more rows
…
